TP FINAL/TP Final/simulation/qsim/TP_FINAL.msim.vcd
$comment
	File created using the following command:
		vcd file TP_FINAL.msim.vcd -direction
$end
$date
	Sat Jan 16 19:33:03 2021
$end
$version
	ModelSim Version 10.5b
$end
$timescale
	1ps
$end

$scope module tp_final_vhd_vec_tst $end
$var wire 1 ! ack_error $end
$var wire 1 " busy $end
$var wire 1 # CK_40M $end
$var wire 1 $ CK_50M $end
$var wire 1 % I2S_CLOCK $end
$var wire 1 & reset_test $end
$var wire 1 ' scl $end
$var wire 1 ( sda $end

$scope module i1 $end
$var wire 1 ) gnd $end
$var wire 1 * vcc $end
$var wire 1 + unknown $end
$var wire 1 , devoe $end
$var wire 1 - devclrn $end
$var wire 1 . devpor $end
$var wire 1 / ww_devoe $end
$var wire 1 0 ww_devclrn $end
$var wire 1 1 ww_devpor $end
$var wire 1 2 ww_busy $end
$var wire 1 3 ww_CK_50M $end
$var wire 1 4 ww_scl $end
$var wire 1 5 ww_sda $end
$var wire 1 6 ww_ack_error $end
$var wire 1 7 ww_reset_test $end
$var wire 1 8 ww_CK_40M $end
$var wire 1 9 ww_I2S_CLOCK $end
$var wire 1 : \inst4|altpll_component|auto_generated|pll1_INCLK_bus\ [1] $end
$var wire 1 ; \inst4|altpll_component|auto_generated|pll1_INCLK_bus\ [0] $end
$var wire 1 < \inst4|altpll_component|auto_generated|pll1_CLK_bus\ [4] $end
$var wire 1 = \inst4|altpll_component|auto_generated|pll1_CLK_bus\ [3] $end
$var wire 1 > \inst4|altpll_component|auto_generated|pll1_CLK_bus\ [2] $end
$var wire 1 ? \inst4|altpll_component|auto_generated|pll1_CLK_bus\ [1] $end
$var wire 1 @ \inst4|altpll_component|auto_generated|pll1_CLK_bus\ [0] $end
$var wire 1 A \inst4|altpll_component|auto_generated|wire_pll1_clk[0]~clkctrl_INCLK_bus\ [3] $end
$var wire 1 B \inst4|altpll_component|auto_generated|wire_pll1_clk[0]~clkctrl_INCLK_bus\ [2] $end
$var wire 1 C \inst4|altpll_component|auto_generated|wire_pll1_clk[0]~clkctrl_INCLK_bus\ [1] $end
$var wire 1 D \inst4|altpll_component|auto_generated|wire_pll1_clk[0]~clkctrl_INCLK_bus\ [0] $end
$var wire 1 E \CK_50M~inputclkctrl_INCLK_bus\ [3] $end
$var wire 1 F \CK_50M~inputclkctrl_INCLK_bus\ [2] $end
$var wire 1 G \CK_50M~inputclkctrl_INCLK_bus\ [1] $end
$var wire 1 H \CK_50M~inputclkctrl_INCLK_bus\ [0] $end
$var wire 1 I \~ALTERA_ASDO_DATA1~~ibuf_o\ $end
$var wire 1 J \~ALTERA_ASDO_DATA1~~padout\ $end
$var wire 1 K \~ALTERA_FLASH_nCE_nCSO~~ibuf_o\ $end
$var wire 1 L \~ALTERA_FLASH_nCE_nCSO~~padout\ $end
$var wire 1 M \~ALTERA_DCLK~~padout\ $end
$var wire 1 N \~ALTERA_DATA0~~ibuf_o\ $end
$var wire 1 O \~ALTERA_DATA0~~padout\ $end
$var wire 1 P \~ALTERA_nCEO~~padout\ $end
$var wire 1 Q \~ALTERA_DCLK~~obuf_o\ $end
$var wire 1 R \~ALTERA_nCEO~~obuf_o\ $end
$var wire 1 S \CK_50M~input_o\ $end
$var wire 1 T \CK_50M~inputclkctrl_outclk\ $end
$var wire 1 U \inst|bit_cnt[0]~1_combout\ $end
$var wire 1 V \inst4|altpll_component|auto_generated|wire_pll1_fbout\ $end
$var wire 1 W \inst4|altpll_component|auto_generated|wire_pll1_clk[0]~clkctrl_outclk\ $end
$var wire 1 X \inst1|count[0]~18_combout\ $end
$var wire 1 Y \inst1|count[1]~6_combout\ $end
$var wire 1 Z \inst1|count[1]~7\ $end
$var wire 1 [ \inst1|count[2]~8_combout\ $end
$var wire 1 \ \inst1|count[2]~9\ $end
$var wire 1 ] \inst1|count[3]~10_combout\ $end
$var wire 1 ^ \inst1|LessThan1~0_combout\ $end
$var wire 1 _ \inst1|count[3]~11\ $end
$var wire 1 ` \inst1|count[4]~12_combout\ $end
$var wire 1 a \inst1|count[4]~13\ $end
$var wire 1 b \inst1|count[5]~14_combout\ $end
$var wire 1 c \inst1|count[5]~15\ $end
$var wire 1 d \inst1|count[6]~16_combout\ $end
$var wire 1 e \inst1|LessThan1~1_combout\ $end
$var wire 1 f \inst1|reset_tmp~0_combout\ $end
$var wire 1 g \inst1|reset_tmp~q\ $end
$var wire 1 h \inst1|reset_n~feeder_combout\ $end
$var wire 1 i \inst1|reset_n~q\ $end
$var wire 1 j \inst|Selector19~0_combout\ $end
$var wire 1 k \inst|Equal1~0_combout\ $end
$var wire 1 l \inst|Selector20~3_combout\ $end
$var wire 1 m \inst|Add0~3\ $end
$var wire 1 n \inst|Add0~5\ $end
$var wire 1 o \inst|Add0~6_combout\ $end
$var wire 1 p \inst|count~1_combout\ $end
$var wire 1 q \inst|Add0~7\ $end
$var wire 1 r \inst|Add0~8_combout\ $end
$var wire 1 s \inst|count~3_combout\ $end
$var wire 1 t \inst|Add0~9\ $end
$var wire 1 u \inst|Add0~11\ $end
$var wire 1 v \inst|Add0~12_combout\ $end
$var wire 1 w \inst|count~0_combout\ $end
$var wire 1 x \inst|Equal0~0_combout\ $end
$var wire 1 y \inst|count~2_combout\ $end
$var wire 1 z \inst|Add0~10_combout\ $end
$var wire 1 { \inst|process_0~4_combout\ $end
$var wire 1 | \inst|process_0~5_combout\ $end
$var wire 1 } \inst|process_0~6_combout\ $end
$var wire 1 ~ \inst|Equal0~2_combout\ $end
$var wire 1 !! \inst|process_0~0_combout\ $end
$var wire 1 "! \inst|process_0~2_combout\ $end
$var wire 1 #! \inst|process_0~3_combout\ $end
$var wire 1 $! \inst|data_clk~0_combout\ $end
$var wire 1 %! \inst|data_clk~q\ $end
$var wire 1 &! \inst|data_clk_prev~feeder_combout\ $end
$var wire 1 '! \inst|data_clk_prev~q\ $end
$var wire 1 (! \inst|process_1~0_combout\ $end
$var wire 1 )! \inst|state.wr~q\ $end
$var wire 1 *! \inst|state~15_combout\ $end
$var wire 1 +! \inst|state.slv_ack2~q\ $end
$var wire 1 ,! \inst|Selector21~0_combout\ $end
$var wire 1 -! \inst|state.rd~q\ $end
$var wire 1 .! \inst|state~14_combout\ $end
$var wire 1 /! \inst|state.mstr_ack~q\ $end
$var wire 1 0! \inst|WideOr6~0_combout\ $end
$var wire 1 1! \inst|state.stop~q\ $end
$var wire 1 2! \inst|state.ready~0_combout\ $end
$var wire 1 3! \inst|state.ready~q\ $end
$var wire 1 4! \inst|state.start~0_combout\ $end
$var wire 1 5! \inst|state.start~q\ $end
$var wire 1 6! \inst|Selector19~1_combout\ $end
$var wire 1 7! \inst|state.command~q\ $end
$var wire 1 8! \inst|Selector0~3_combout\ $end
$var wire 1 9! \inst|bit_cnt[2]~0_combout\ $end
$var wire 1 :! \inst|Selector25~0_combout\ $end
$var wire 1 ;! \inst|Add1~0_combout\ $end
$var wire 1 <! \inst|state~13_combout\ $end
$var wire 1 =! \inst|state.slv_ack1~q\ $end
$var wire 1 >! \inst|Selector20~2_combout\ $end
$var wire 1 ?! \inst|Selector27~0_combout\ $end
$var wire 1 @! \inst|Selector27~1_combout\ $end
$var wire 1 A! \inst|process_1~1_combout\ $end
$var wire 1 B! \inst|scl_ena~q\ $end
$var wire 1 C! \inst|stretch~0_combout\ $end
$var wire 1 D! \inst|stretch~q\ $end
$var wire 1 E! \inst|Add0~0_combout\ $end
$var wire 1 F! \inst|count~6_combout\ $end
$var wire 1 G! \inst|Add0~1\ $end
$var wire 1 H! \inst|Add0~2_combout\ $end
$var wire 1 I! \inst|count~5_combout\ $end
$var wire 1 J! \inst|Equal0~1_combout\ $end
$var wire 1 K! \inst|count~4_combout\ $end
$var wire 1 L! \inst|Add0~4_combout\ $end
$var wire 1 M! \inst|process_0~1_combout\ $end
$var wire 1 N! \inst|LessThan1~0_combout\ $end
$var wire 1 O! \inst|scl_clk~0_combout\ $end
$var wire 1 P! \inst|scl_clk~q\ $end
$var wire 1 Q! \inst|scl~1_combout\ $end
$var wire 1 R! \inst|sda_int~0_combout\ $end
$var wire 1 S! \inst|Selector23~0_combout\ $end
$var wire 1 T! \inst|Selector23~1_combout\ $end
$var wire 1 U! \inst|Selector23~2_combout\ $end
$var wire 1 V! \inst|Selector23~3_combout\ $end
$var wire 1 W! \inst|Selector23~4_combout\ $end
$var wire 1 X! \inst|sda_int~q\ $end
$var wire 1 Y! \inst|Selector29~0_combout\ $end
$var wire 1 Z! \inst|Selector0~2_combout\ $end
$var wire 1 [! \inst|Selector0~4_combout\ $end
$var wire 1 \! \inst|busy~q\ $end
$var wire 1 ]! \inst|Selector28~0_combout\ $end
$var wire 1 ^! \inst|Selector28~1_combout\ $end
$var wire 1 _! \inst|ack_error~q\ $end
$var wire 1 `! \inst|bit_cnt\ [2] $end
$var wire 1 a! \inst|bit_cnt\ [1] $end
$var wire 1 b! \inst|bit_cnt\ [0] $end
$var wire 1 c! \inst4|altpll_component|auto_generated|wire_pll1_clk\ [4] $end
$var wire 1 d! \inst4|altpll_component|auto_generated|wire_pll1_clk\ [3] $end
$var wire 1 e! \inst4|altpll_component|auto_generated|wire_pll1_clk\ [2] $end
$var wire 1 f! \inst4|altpll_component|auto_generated|wire_pll1_clk\ [1] $end
$var wire 1 g! \inst4|altpll_component|auto_generated|wire_pll1_clk\ [0] $end
$var wire 1 h! \inst1|count\ [6] $end
$var wire 1 i! \inst1|count\ [5] $end
$var wire 1 j! \inst1|count\ [4] $end
$var wire 1 k! \inst1|count\ [3] $end
$var wire 1 l! \inst1|count\ [2] $end
$var wire 1 m! \inst1|count\ [1] $end
$var wire 1 n! \inst1|count\ [0] $end
$var wire 1 o! \inst|count\ [6] $end
$var wire 1 p! \inst|count\ [5] $end
$var wire 1 q! \inst|count\ [4] $end
$var wire 1 r! \inst|count\ [3] $end
$var wire 1 s! \inst|count\ [2] $end
$var wire 1 t! \inst|count\ [1] $end
$var wire 1 u! \inst|count\ [0] $end
$var wire 1 v! \inst|ALT_INV_busy~q\ $end
$upscope $end
$upscope $end
$enddefinitions $end
#0
$dumpvars
0!
1"
0#
0$
x%
0&
z'
z(
0)
1*
x+
1,
1-
1.
1/
10
11
12
03
z4
z5
06
07
08
x9
xI
xJ
xK
xL
xM
xN
xO
xP
xQ
xR
0S
0T
1U
xV
xW
1X
0Y
0Z
0[
1\
0]
0^
0_
0`
1a
0b
0c
0d
1e
0f
0g
0h
0i
0j
0k
0l
1m
0n
0o
0p
1q
0r
0s
0t
1u
0v
0w
0x
0y
0z
0{
1|
1}
0~
0!!
0"!
1#!
0$!
0%!
0&!
0'!
0(!
0)!
0*!
0+!
0,!
0-!
0.!
0/!
00!
01!
12!
03!
14!
05!
06!
07!
18!
09!
0:!
0;!
0<!
0=!
1>!
0?!
0@!
0A!
0B!
0C!
0D!
1E!
1F!
0G!
0H!
0I!
0J!
0K!
0L!
0M!
0N!
0O!
0P!
1Q!
1R!
1S!
1T!
1U!
1V!
0W!
0X!
1Y!
0Z!
0[!
0\!
1]!
0^!
0_!
1v!
x<
x=
x>
x?
x@
0`!
0a!
0b!
xc!
xd!
xe!
xf!
xg!
0h!
0i!
0j!
0k!
0l!
0m!
0n!
0o!
0p!
0q!
0r!
0s!
0t!
0u!
1E
1F
1G
0H
0:
0;
1A
1B
1C
xD
$end
#834
1V
#10000
1$
13
1S
1H
1;
1T
18
1#
#10834
0V
#20000
0$
03
0S
0H
0;
0T
08
0#
#20834
1V
#30000
1$
13
1S
1H
1;
1T
18
1#
#30834
0V
#40000
0$
03
0S
0H
0;
0T
08
0#
#40834
1V
#50000
1$
13
1S
1H
1;
1T
18
1#
#50834
0V
#60000
0$
03
0S
0H
0;
0T
08
0#
#60834
1V
#70000
1$
13
1S
1H
1;
1T
18
1#
#75417
0V
#80000
0$
03
0S
0H
0;
0T
08
0#
#90000
1$
13
1V
1<
1=
1>
1?
1@
1S
1c!
1d!
1e!
1f!
1g!
1H
1;
1D
1W
1T
18
1#
19
1%
#93333
0<
0=
0>
0?
0@
0c!
0d!
0e!
0f!
0g!
0D
0W
09
0%
#100000
0$
03
0V
0S
0H
0;
0T
08
0#
#110000
1$
13
1V
1S
1H
1;
1T
18
1#
#120000
0$
03
0V
0S
0H
0;
0T
08
0#
#130000
1$
13
1V
1S
1H
1;
1T
18
1#
#140000
0$
03
0V
0S
0H
0;
0T
08
0#
#150000
1$
13
1V
1S
1H
1;
1T
18
1#
#160000
0$
03
0V
0S
0H
0;
0T
08
0#
#170000
1$
13
1V
1S
1H
1;
1T
18
1#
#176666
1<
1=
1>
1?
1@
1c!
1d!
1e!
1f!
1g!
1D
1W
1n!
0X
1Y
19
1%
#180000
0$
03
0V
0S
0H
0;
0T
08
0#
#190000
1$
13
1V
1S
1H
1;
1T
18
1#
#200000
0$
03
0V
0S
0H
0;
0T
08
0#
#210000
1$
13
1V
1S
1H
1;
1T
18
1#
#220000
0$
03
0V
0S
0H
0;
0T
08
0#
#230000
1$
13
1V
1S
1H
1;
1T
18
1#
#240000
0$
03
0V
0S
0H
0;
0T
08
0#
#250000
1$
13
1V
1S
1H
1;
1T
18
1#
#260000
0$
03
0V
0<
0=
0>
0?
0@
0S
0c!
0d!
0e!
0f!
0g!
0H
0;
0D
0W
0T
08
0#
09
0%
#270000
1$
13
1V
1S
1H
1;
1T
18
1#
#280000
0$
03
0V
0S
0H
0;
0T
08
0#
#290000
1$
13
1V
1S
1H
1;
1T
18
1#
#300000
0$
03
0V
0S
0H
0;
0T
08
0#
#310000
1$
13
1V
1S
1H
1;
1T
18
1#
#320000
0$
03
0V
0S
0H
0;
0T
08
0#
#330000
1$
13
1V
1S
1H
1;
1T
18
1#
#340000
0$
03
0V
0S
0H
0;
0T
08
0#
#343333
1<
1=
1>
1?
1@
1c!
1d!
1e!
1f!
1g!
1D
1W
0n!
1m!
1X
19
1%
#350000
1$
13
1V
1S
1H
1;
1T
18
1#
#360000
0$
03
0V
0S
0H
0;
0T
08
0#
#370000
1$
13
1V
1S
1H
1;
1T
18
1#
#380000
0$
03
0V
0S
0H
0;
0T
08
0#
#390000
1$
13
1V
1S
1H
1;
1T
18
1#
#400000
0$
03
0V
0S
0H
0;
0T
08
0#
#410000
1$
13
1V
1S
1H
1;
1T
18
1#
#420000
0$
03
0V
0S
0H
0;
0T
08
0#
#426666
0<
0=
0>
0?
0@
0c!
0d!
0e!
0f!
0g!
0D
0W
09
0%
#430000
1$
13
1V
1S
1H
1;
1T
18
1#
#440000
0$
03
0V
0S
0H
0;
0T
08
0#
#450000
1$
13
1V
1S
1H
1;
1T
18
1#
#460000
0$
03
0V
0S
0H
0;
0T
08
0#
#470000
1$
13
1V
1S
1H
1;
1T
18
1#
#480000
0$
03
0V
0S
0H
0;
0T
08
0#
#490000
1$
13
1V
1S
1H
1;
1T
18
1#
#500000
0$
03
0V
0S
0H
0;
0T
08
0#
#510000
1$
13
1V
1<
1=
1>
1?
1@
1S
1c!
1d!
1e!
1f!
1g!
1H
1;
1D
1W
1T
18
1#
1n!
0X
0Y
1Z
19
1[
1%
#520000
0$
03
0V
0S
0H
0;
0T
08
0#
#530000
1$
13
1V
1S
1H
1;
1T
18
1#
#540000
0$
03
0V
0S
0H
0;
0T
08
0#
#550000
1$
13
1V
1S
1H
1;
1T
18
1#
#560000
0$
03
0V
0S
0H
0;
0T
08
0#
#570000
1$
13
1V
1S
1H
1;
1T
18
1#
#580000
0$
03
0V
0S
0H
0;
0T
08
0#
#590000
1$
13
1V
1S
1H
1;
1T
18
1#
#593333
0<
0=
0>
0?
0@
0c!
0d!
0e!
0f!
0g!
0D
0W
09
0%
#600000
0$
03
0V
0S
0H
0;
0T
08
0#
#610000
1$
13
1V
1S
1H
1;
1T
18
1#
#620000
0$
03
0V
0S
0H
0;
0T
08
0#
#630000
1$
13
1V
1S
1H
1;
1T
18
1#
#640000
0$
03
0V
0S
0H
0;
0T
08
0#
#650000
1$
13
1V
1S
1H
1;
1T
18
1#
#660000
0$
03
0V
0S
0H
0;
0T
08
0#
#670000
1$
13
1V
1S
1H
1;
1T
18
1#
#676666
1<
1=
1>
1?
1@
1c!
1d!
1e!
1f!
1g!
1D
1W
0n!
0m!
1l!
0[
0\
1X
0Z
19
1[
1\
1]
1%
0]
#680000
0$
03
0V
0S
0H
0;
0T
08
0#
#690000
1$
13
1V
1S
1H
1;
1T
18
1#
#700000
0$
03
0V
0S
0H
0;
0T
08
0#
#710000
1$
13
1V
1S
1H
1;
1T
18
1#
#720000
0$
03
0V
0S
0H
0;
0T
08
0#
#730000
1$
13
1V
1S
1H
1;
1T
18
1#
#740000
0$
03
0V
0S
0H
0;
0T
08
0#
#750000
1$
13
1V
1S
1H
1;
1T
18
1#
#760000
0$
03
0V
0<
0=
0>
0?
0@
0S
0c!
0d!
0e!
0f!
0g!
0H
0;
0D
0W
0T
08
0#
09
0%
#770000
1$
13
1V
1S
1H
1;
1T
18
1#
#780000
0$
03
0V
0S
0H
0;
0T
08
0#
#790000
1$
13
1V
1S
1H
1;
1T
18
1#
#800000
0$
03
0V
0S
0H
0;
0T
08
0#
#810000
1$
13
1V
1S
1H
1;
1T
18
1#
#820000
0$
03
0V
0S
0H
0;
0T
08
0#
#830000
1$
13
1V
1S
1H
1;
1T
18
1#
#840000
0$
03
0V
0S
0H
0;
0T
08
0#
#843333
1<
1=
1>
1?
1@
1c!
1d!
1e!
1f!
1g!
1D
1W
1n!
0X
1Y
1^
19
1%
#850000
1$
13
1V
1S
1H
1;
1T
18
1#
#860000
0$
03
0V
0S
0H
0;
0T
08
0#
#870000
1$
13
1V
1S
1H
1;
1T
18
1#
#880000
0$
03
0V
0S
0H
0;
0T
08
0#
#890000
1$
13
1V
1S
1H
1;
1T
18
1#
#900000
0$
03
0V
0S
0H
0;
0T
08
0#
#910000
1$
13
1V
1S
1H
1;
1T
18
1#
#920000
0$
03
0V
0S
0H
0;
0T
08
0#
#926666
0<
0=
0>
0?
0@
0c!
0d!
0e!
0f!
0g!
0D
0W
09
0%
#930000
1$
13
1V
1S
1H
1;
1T
18
1#
#940000
0$
03
0V
0S
0H
0;
0T
08
0#
#950000
1$
13
1V
1S
1H
1;
1T
18
1#
#960000
0$
03
0V
0S
0H
0;
0T
08
0#
#970000
1$
13
1V
1S
1H
1;
1T
18
1#
#980000
0$
03
0V
0S
0H
0;
0T
08
0#
#990000
1$
13
1V
1S
1H
1;
1T
18
1#
#1000000
0$
03
0V
0S
0H
0;
0T
08
0#
#1010000
1$
13
1V
1<
1=
1>
1?
1@
1S
1c!
1d!
1e!
1f!
1g!
1H
1;
1D
1W
1T
18
1#
0n!
1m!
1X
19
1%
#1020000
0$
03
0V
0S
0H
0;
0T
08
0#
#1030000
1$
13
1V
1S
1H
1;
1T
18
1#
#1040000
0$
03
0V
0S
0H
0;
0T
08
0#
#1050000
1$
13
1V
1S
1H
1;
1T
18
1#
#1060000
0$
03
0V
0S
0H
0;
0T
08
0#
#1070000
1$
13
1V
1S
1H
1;
1T
18
1#
#1080000
0$
03
0V
0S
0H
0;
0T
08
0#
#1090000
1$
13
1V
1S
1H
1;
1T
18
1#
#1093333
0<
0=
0>
0?
0@
0c!
0d!
0e!
0f!
0g!
0D
0W
09
0%
#1100000
0$
03
0V
0S
0H
0;
0T
08
0#
#1110000
1$
13
1V
1S
1H
1;
1T
18
1#
#1120000
0$
03
0V
0S
0H
0;
0T
08
0#
#1130000
1$
13
1V
1S
1H
1;
1T
18
1#
#1140000
0$
03
0V
0S
0H
0;
0T
08
0#
#1150000
1$
13
1V
1S
1H
1;
1T
18
1#
#1160000
0$
03
0V
0S
0H
0;
0T
08
0#
#1170000
1$
13
1V
1S
1H
1;
1T
18
1#
#1176666
1<
1=
1>
1?
1@
1c!
1d!
1e!
1f!
1g!
1D
1W
1n!
0X
0Y
1Z
19
0[
0\
1%
1]
#1180000
0$
03
0V
0S
0H
0;
0T
08
0#
#1190000
1$
13
1V
1S
1H
1;
1T
18
1#
#1200000
0$
03
0V
0S
0H
0;
0T
08
0#
#1210000
1$
13
1V
1S
1H
1;
1T
18
1#
#1220000
0$
03
0V
0S
0H
0;
0T
08
0#
#1230000
1$
13
1V
1S
1H
1;
1T
18
1#
#1240000
0$
03
0V
0S
0H
0;
0T
08
0#
#1250000
1$
13
1V
1S
1H
1;
1T
18
1#
#1260000
0$
03
0V
0<
0=
0>
0?
0@
0S
0c!
0d!
0e!
0f!
0g!
0H
0;
0D
0W
0T
08
0#
09
0%
#1270000
1$
13
1V
1S
1H
1;
1T
18
1#
#1280000
0$
03
0V
0S
0H
0;
0T
08
0#
#1290000
1$
13
1V
1S
1H
1;
1T
18
1#
#1300000
0$
03
0V
0S
0H
0;
0T
08
0#
#1310000
1$
13
1V
1S
1H
1;
1T
18
1#
#1320000
0$
03
0V
0S
0H
0;
0T
08
0#
#1330000
1$
13
1V
1S
1H
1;
1T
18
1#
#1340000
0$
03
0V
0S
0H
0;
0T
08
0#
#1343333
1<
1=
1>
1?
1@
1c!
1d!
1e!
1f!
1g!
1D
1W
0n!
0m!
0l!
1k!
0]
1_
1[
1\
1X
0Z
19
0[
1]
0_
1`
1%
0`
#1350000
1$
13
1V
1S
1H
1;
1T
18
1#
#1360000
0$
03
0V
0S
0H
0;
0T
08
0#
#1370000
1$
13
1V
1S
1H
1;
1T
18
1#
#1380000
0$
03
0V
0S
0H
0;
0T
08
0#
#1390000
1$
13
1V
1S
1H
1;
1T
18
1#
#1400000
0$
03
0V
0S
0H
0;
0T
08
0#
#1410000
1$
13
1V
1S
1H
1;
1T
18
1#
#1420000
0$
03
0V
0S
0H
0;
0T
08
0#
#1426666
0<
0=
0>
0?
0@
0c!
0d!
0e!
0f!
0g!
0D
0W
09
0%
#1430000
1$
13
1V
1S
1H
1;
1T
18
1#
#1440000
0$
03
0V
0S
0H
0;
0T
08
0#
#1450000
1$
13
1V
1S
1H
1;
1T
18
1#
#1460000
0$
03
0V
0S
0H
0;
0T
08
0#
#1470000
1$
13
1V
1S
1H
1;
1T
18
1#
#1480000
0$
03
0V
0S
0H
0;
0T
08
0#
#1490000
1$
13
1V
1S
1H
1;
1T
18
1#
#1500000
0$
03
0V
0S
0H
0;
0T
08
0#
#1510000
1$
13
1V
1<
1=
1>
1?
1@
1S
1c!
1d!
1e!
1f!
1g!
1H
1;
1D
1W
1T
18
1#
1n!
0X
1Y
19
1%
#1520000
0$
03
0V
0S
0H
0;
0T
08
0#
#1530000
1$
13
1V
1S
1H
1;
1T
18
1#
#1540000
0$
03
0V
0S
0H
0;
0T
08
0#
#1550000
1$
13
1V
1S
1H
1;
1T
18
1#
#1560000
0$
03
0V
0S
0H
0;
0T
08
0#
#1570000
1$
13
1V
1S
1H
1;
1T
18
1#
#1580000
0$
03
0V
0S
0H
0;
0T
08
0#
#1590000
1$
13
1V
1S
1H
1;
1T
18
1#
#1593333
0<
0=
0>
0?
0@
0c!
0d!
0e!
0f!
0g!
0D
0W
09
0%
#1600000
0$
03
0V
0S
0H
0;
0T
08
0#
#1610000
1$
13
1V
1S
1H
1;
1T
18
1#
#1620000
0$
03
0V
0S
0H
0;
0T
08
0#
#1630000
1$
13
1V
1S
1H
1;
1T
18
1#
#1640000
0$
03
0V
0S
0H
0;
0T
08
0#
#1650000
1$
13
1V
1S
1H
1;
1T
18
1#
#1660000
0$
03
0V
0S
0H
0;
0T
08
0#
#1670000
1$
13
1V
1S
1H
1;
1T
18
1#
#1676666
1<
1=
1>
1?
1@
1c!
1d!
1e!
1f!
1g!
1D
1W
0n!
1m!
1X
19
1%
#1680000
0$
03
0V
0S
0H
0;
0T
08
0#
#1690000
1$
13
1V
1S
1H
1;
1T
18
1#
#1700000
0$
03
0V
0S
0H
0;
0T
08
0#
#1710000
1$
13
1V
1S
1H
1;
1T
18
1#
#1720000
0$
03
0V
0S
0H
0;
0T
08
0#
#1730000
1$
13
1V
1S
1H
1;
1T
18
1#
#1740000
0$
03
0V
0S
0H
0;
0T
08
0#
#1750000
1$
13
1V
1S
1H
1;
1T
18
1#
#1760000
0$
03
0V
0<
0=
0>
0?
0@
0S
0c!
0d!
0e!
0f!
0g!
0H
0;
0D
0W
0T
08
0#
09
0%
#1770000
1$
13
1V
1S
1H
1;
1T
18
1#
#1780000
0$
03
0V
0S
0H
0;
0T
08
0#
#1790000
1$
13
1V
1S
1H
1;
1T
18
1#
#1800000
0$
03
0V
0S
0H
0;
0T
08
0#
#1810000
1$
13
1V
1S
1H
1;
1T
18
1#
#1820000
0$
03
0V
0S
0H
0;
0T
08
0#
#1830000
1$
13
1V
1S
1H
1;
1T
18
1#
#1840000
0$
03
0V
0S
0H
0;
0T
08
0#
#1843333
1<
1=
1>
1?
1@
1c!
1d!
1e!
1f!
1g!
1D
1W
1n!
0X
0Y
1Z
19
1[
1%
#1850000
1$
13
1V
1S
1H
1;
1T
18
1#
#1860000
0$
03
0V
0S
0H
0;
0T
08
0#
#1870000
1$
13
1V
1S
1H
1;
1T
18
1#
#1880000
0$
03
0V
0S
0H
0;
0T
08
0#
#1890000
1$
13
1V
1S
1H
1;
1T
18
1#
#1900000
0$
03
0V
0S
0H
0;
0T
08
0#
#1910000
1$
13
1V
1S
1H
1;
1T
18
1#
#1920000
0$
03
0V
0S
0H
0;
0T
08
0#
#1926666
0<
0=
0>
0?
0@
0c!
0d!
0e!
0f!
0g!
0D
0W
09
0%
#1930000
1$
13
1V
1S
1H
1;
1T
18
1#
#1940000
0$
03
0V
0S
0H
0;
0T
08
0#
#1950000
1$
13
1V
1S
1H
1;
1T
18
1#
#1960000
0$
03
0V
0S
0H
0;
0T
08
0#
#1970000
1$
13
1V
1S
1H
1;
1T
18
1#
#1980000
0$
03
0V
0S
0H
0;
0T
08
0#
#1990000
1$
13
1V
1S
1H
1;
1T
18
1#
#2000000
0$
03
0V
0S
0H
0;
0T
08
0#
#2010000
1$
13
1V
1<
1=
1>
1?
1@
1S
1c!
1d!
1e!
1f!
1g!
1H
1;
1D
1W
1T
18
1#
0n!
0m!
1l!
0[
0\
1X
0Z
19
1[
1\
0]
1_
1%
1`
1]
0_
0`
#2020000
0$
03
0V
0S
0H
0;
0T
08
0#
#2030000
1$
13
1V
1S
1H
1;
1T
18
1#
#2040000
0$
03
0V
0S
0H
0;
0T
08
0#
#2050000
1$
13
1V
1S
1H
1;
1T
18
1#
#2060000
0$
03
0V
0S
0H
0;
0T
08
0#
#2070000
1$
13
1V
1S
1H
1;
1T
18
1#
#2080000
0$
03
0V
0S
0H
0;
0T
08
0#
#2090000
1$
13
1V
1S
1H
1;
1T
18
1#
#2093333
0<
0=
0>
0?
0@
0c!
0d!
0e!
0f!
0g!
0D
0W
09
0%
#2100000
0$
03
0V
0S
0H
0;
0T
08
0#
#2110000
1$
13
1V
1S
1H
1;
1T
18
1#
#2120000
0$
03
0V
0S
0H
0;
0T
08
0#
#2130000
1$
13
1V
1S
1H
1;
1T
18
1#
#2140000
0$
03
0V
0S
0H
0;
0T
08
0#
#2150000
1$
13
1V
1S
1H
1;
1T
18
1#
#2160000
0$
03
0V
0S
0H
0;
0T
08
0#
#2170000
1$
13
1V
1S
1H
1;
1T
18
1#
#2176666
1<
1=
1>
1?
1@
1c!
1d!
1e!
1f!
1g!
1D
1W
1n!
0X
1Y
19
1%
#2180000
0$
03
0V
0S
0H
0;
0T
08
0#
#2190000
1$
13
1V
1S
1H
1;
1T
18
1#
#2200000
0$
03
0V
0S
0H
0;
0T
08
0#
#2210000
1$
13
1V
1S
1H
1;
1T
18
1#
#2220000
0$
03
0V
0S
0H
0;
0T
08
0#
#2230000
1$
13
1V
1S
1H
1;
1T
18
1#
#2240000
0$
03
0V
0S
0H
0;
0T
08
0#
#2250000
1$
13
1V
1S
1H
1;
1T
18
1#
#2260000
0$
03
0V
0<
0=
0>
0?
0@
0S
0c!
0d!
0e!
0f!
0g!
0H
0;
0D
0W
0T
08
0#
09
0%
#2270000
1$
13
1V
1S
1H
1;
1T
18
1#
#2280000
0$
03
0V
0S
0H
0;
0T
08
0#
#2290000
1$
13
1V
1S
1H
1;
1T
18
1#
#2300000
0$
03
0V
0S
0H
0;
0T
08
0#
#2310000
1$
13
1V
1S
1H
1;
1T
18
1#
#2320000
0$
03
0V
0S
0H
0;
0T
08
0#
#2330000
1$
13
1V
1S
1H
1;
1T
18
1#
#2340000
0$
03
0V
0S
0H
0;
0T
08
0#
#2343333
1<
1=
1>
1?
1@
1c!
1d!
1e!
1f!
1g!
1D
1W
0n!
1m!
1X
19
1%
#2350000
1$
13
1V
1S
1H
1;
1T
18
1#
#2360000
0$
03
0V
0S
0H
0;
0T
08
0#
#2370000
1$
13
1V
1S
1H
1;
1T
18
1#
#2380000
0$
03
0V
0S
0H
0;
0T
08
0#
#2390000
1$
13
1V
1S
1H
1;
1T
18
1#
#2400000
0$
03
0V
0S
0H
0;
0T
08
0#
#2410000
1$
13
1V
1S
1H
1;
1T
18
1#
#2420000
0$
03
0V
0S
0H
0;
0T
08
0#
#2426666
0<
0=
0>
0?
0@
0c!
0d!
0e!
0f!
0g!
0D
0W
09
0%
#2430000
1$
13
1V
1S
1H
1;
1T
18
1#
#2440000
0$
03
0V
0S
0H
0;
0T
08
0#
#2450000
1$
13
1V
1S
1H
1;
1T
18
1#
#2460000
0$
03
0V
0S
0H
0;
0T
08
0#
#2470000
1$
13
1V
1S
1H
1;
1T
18
1#
#2480000
0$
03
0V
0S
0H
0;
0T
08
0#
#2490000
1$
13
1V
1S
1H
1;
1T
18
1#
#2500000
0$
03
0V
0S
0H
0;
0T
08
0#
